"","AAA","AA","A","BBB","BB","B","CCC","Default"
"AAA",0.683921568627451,0.0149019607843137,0.0572549019607843,0.0368627450980392,0.0619607843137255,0.0603921568627451,0.0792156862745098,0.00549019607843137
"AA",0.617021276595745,0,0.106382978723404,0.0638297872340425,0.0638297872340425,0,0.106382978723404,0.0425531914893617
"A",0.427672955974843,0.0188679245283019,0.0691823899371069,0.050314465408805,0.132075471698113,0.132075471698113,0.157232704402516,0.0125786163522013
"BBB",0.443396226415094,0.00943396226415094,0.10377358490566,0.0283018867924528,0.207547169811321,0.0754716981132075,0.113207547169811,0.0188679245283019
"BB",0.3671875,0.02734375,0.078125,0.03515625,0.1484375,0.12109375,0.2109375,0.01171875
"B",0.355450236966825,0.042654028436019,0.104265402843602,0.037914691943128,0.118483412322275,0.132701421800948,0.194312796208531,0.014218009478673
"CCC",0.31638418079096,0.0225988700564972,0.0621468926553672,0.0451977401129944,0.166666666666667,0.104519774011299,0.240112994350282,0.0423728813559322
"Default",0,0,0,0,0,0,0,1
